<?xml version="1.0" encoding="UTF-8" standalone="no"?>
<!-- Created with Inkscape (http://www.inkscape.org/) -->

<svg
   xmlns:dc="http://purl.org/dc/elements/1.1/"
   xmlns:cc="http://creativecommons.org/ns#"
   xmlns:rdf="http://www.w3.org/1999/02/22-rdf-syntax-ns#"
   xmlns:svg="http://www.w3.org/2000/svg"
   xmlns="http://www.w3.org/2000/svg"
   xmlns:sodipodi="http://sodipodi.sourceforge.net/DTD/sodipodi-0.dtd"
   xmlns:inkscape="http://www.inkscape.org/namespaces/inkscape"
   width="33.498138mm"
   height="21.639137mm"
   viewBox="0 0 33.498138 21.639137"
   version="1.1"
   id="svg8"
   inkscape:version="0.92.3 (2405546, 2018-03-11)"
   sodipodi:docname="placeholder.svg">
  <defs
     id="defs2" />
  <sodipodi:namedview
     id="base"
     pagecolor="#ffffff"
     bordercolor="#666666"
     borderopacity="1.0"
     inkscape:pageopacity="0.0"
     inkscape:pageshadow="2"
     inkscape:zoom="5.6"
     inkscape:cx="102.97589"
     inkscape:cy="53.798297"
     inkscape:document-units="mm"
     inkscape:current-layer="layer1"
     showgrid="false"
     fit-margin-top="0"
     fit-margin-left="0"
     fit-margin-right="0"
     fit-margin-bottom="0"
     inkscape:window-width="2560"
     inkscape:window-height="1385"
     inkscape:window-x="0"
     inkscape:window-y="27"
     inkscape:window-maximized="1" />
  <metadata
     id="metadata5">
    <rdf:RDF>
      <cc:Work
         rdf:about="">
        <dc:format>image/svg+xml</dc:format>
        <dc:type
           rdf:resource="http://purl.org/dc/dcmitype/StillImage" />
        <dc:title></dc:title>
      </cc:Work>
    </rdf:RDF>
  </metadata>
  <g
     inkscape:label="Layer 1"
     inkscape:groupmode="layer"
     id="layer1"
     transform="translate(-8.0270596,-108.85223)">
    <rect
       style="opacity:1;vector-effect:none;fill:#ececec;fill-opacity:1;stroke:none;stroke-width:0.31799999;stroke-linecap:butt;stroke-linejoin:miter;stroke-miterlimit:4;stroke-dasharray:none;stroke-dashoffset:0;stroke-opacity:1"
       id="rect885"
       width="33.498138"
       height="21.639137"
       x="8.0270596"
       y="108.85223" />
    <g
       id="g879"
       transform="matrix(0.2882144,0,0,0.2882144,16.562018,110.34362)"
       style="fill:#ffffff">
      <g
         id="g821"
         style="fill:#ffffff">
	<path
   id="path815"
   d="M 5,53 H 52 V 19 H 5 Z M 50,51 H 8.649 L 22.973,38.389 33.275,48.69 c 0.391,0.391 1.023,0.391 1.414,0 0.391,-0.391 0.391,-1.023 0,-1.414 L 29.882,42.469 39.063,32.415 50,42.44 Z M 7,21 H 50 V 39.727 L 39.676,30.263 c -0.196,-0.179 -0.458,-0.28 -0.72,-0.262 -0.265,0.012 -0.515,0.129 -0.694,0.325 L 28.468,41.053 23.725,36.31 C 23.351,35.937 22.753,35.919 22.357,36.266 L 7,49.787 Z"
   inkscape:connector-curvature="0"
   style="fill:#ffffff" />

	<path
   id="path817"
   d="m 15,24 c -3.071,0 -5.569,2.498 -5.569,5.569 0,3.07 2.498,5.568 5.569,5.568 3.071,0 5.569,-2.498 5.569,-5.568 C 20.569,26.498 18.071,24 15,24 Z m 0,9.138 c -1.968,0 -3.569,-1.601 -3.569,-3.568 0,-1.967 1.601,-3.57 3.569,-3.57 1.968,0 3.569,1.602 3.569,3.569 0,1.967 -1.601,3.569 -3.569,3.569 z"
   inkscape:connector-curvature="0"
   style="fill:#ffffff" />

	<path
   id="path819"
   d="M 49.38,15 C 47.59,13.414 38.067,5.042 32.632,1.585 31.72,0.615 30.434,0 29,0 27.566,0 26.28,0.615 25.368,1.585 19.933,5.042 10.41,13.414 8.62,15 H 1 V 57 H 56 V 15 Z M 26.069,4.369 C 26.078,4.326 26.097,4.286 26.108,4.244 26.253,3.709 26.523,3.295 26.768,3.02 26.773,3.015 26.774,3.008 26.779,3.002 27.328,2.391 28.116,2 29,2 c 0.884,0 1.672,0.391 2.221,1.002 0.005,0.005 0.006,0.012 0.011,0.018 0.245,0.275 0.515,0.69 0.66,1.225 0.011,0.042 0.029,0.082 0.039,0.125 C 31.974,4.564 32,4.774 32,5 32,6.654 30.654,8 29,8 27.346,8 26,6.654 26,5 26,4.774 26.026,4.564 26.069,4.369 Z M 24,4.95 c 0,0.017 0,0.033 0,0.05 0,2.757 2.243,5 5,5 2.757,0 5,-2.243 5,-5 0,-0.017 0,-0.033 0,-0.05 4.17,3.033 9.504,7.581 12.345,10.05 H 11.655 C 14.496,12.531 19.831,7.983 24,4.95 Z M 54,55 H 3 V 17 h 6 40 5 z"
   inkscape:connector-curvature="0"
   style="fill:#ffffff" />

</g>
      <g
         id="g823"
         style="fill:#ffffff">
</g>
      <g
         id="g825"
         style="fill:#ffffff">
</g>
      <g
         id="g827"
         style="fill:#ffffff">
</g>
      <g
         id="g829"
         style="fill:#ffffff">
</g>
      <g
         id="g831"
         style="fill:#ffffff">
</g>
      <g
         id="g833"
         style="fill:#ffffff">
</g>
      <g
         id="g835"
         style="fill:#ffffff">
</g>
      <g
         id="g837"
         style="fill:#ffffff">
</g>
      <g
         id="g839"
         style="fill:#ffffff">
</g>
      <g
         id="g841"
         style="fill:#ffffff">
</g>
      <g
         id="g843"
         style="fill:#ffffff">
</g>
      <g
         id="g845"
         style="fill:#ffffff">
</g>
      <g
         id="g847"
         style="fill:#ffffff">
</g>
      <g
         id="g849"
         style="fill:#ffffff">
</g>
      <g
         id="g851"
         style="fill:#ffffff">
</g>
    </g>
    <text
       xml:space="preserve"
       style="font-style:normal;font-variant:normal;font-weight:normal;font-stretch:normal;font-size:2.11666656px;line-height:1.25;font-family:palatino;-inkscape-font-specification:palatino;letter-spacing:0px;word-spacing:0px;fill:#ffffff;fill-opacity:1;stroke:none;stroke-width:0.26458332"
       x="18.486589"
       y="128.97"
       id="text883"><tspan
         sodipodi:role="line"
         id="tspan881"
         x="18.486589"
         y="128.97"
         style="font-style:normal;font-variant:normal;font-weight:normal;font-stretch:normal;font-family:sans-serif;-inkscape-font-specification:sans-serif;fill:#ffffff;stroke-width:0.26458332">Placeholder</tspan></text>
  </g>
</svg>
